Add Plot Element — add_type • plot2
…
# plotting error bars was never easier
library("dplyr", warn.conflicts = FALSE)
df2 <- df |> 
  as_tibble() |> 
  slice(1:25) |>
  filter(var_1 <= 50) |> 
  mutate(error1 = var_2 * 0.9,
         error2 = var_2 * 1.1)

df2
#> # A tibble: 25 × 5
#>    var_1 var_2 var_3 error1 error2
#>    <int> <dbl> <chr>  <dbl>  <dbl>
#>  1     1 116.  A      104.   127. 
#>  2     2 129.  B      116.   142. 
#>  3     3  54.5 C       49.0   59.9
#>  4     4  93.8 D       84.4  103. 
#>  5     5  93.9 E       84.5  103. 
#>  6     6  92.9 A       83.6  102. 
#>  7     7  86.2 B       77.5   94.8
#>  8     8 116.  C      104.   127. 
#>  9     9 152.  D      136.   167. 
#> 10    10  59.2 E       53.3   65.1
#> # ℹ 15 more rows
…
